<?xml version="1.0" encoding="utf-8"?>
<!-- Generator: Adobe Illustrator 23.0.3, SVG Export Plug-In . SVG Version: 6.00 Build 0)  -->
<svg version="1.1" id="Layer_1" xmlns="http://www.w3.org/2000/svg" xmlns:xlink="http://www.w3.org/1999/xlink" x="0px" y="0px"
	 viewBox="0 0 197.7 279.5" style="enable-background:new 0 0 197.7 279.5;" xml:space="preserve">
<style type="text/css">
	.st0{fill:#FF0026;stroke:#000000;stroke-width:5;stroke-miterlimit:10;}
	.st1{fill:none;stroke:#000000;stroke-width:15;stroke-miterlimit:10;}
	.st2{fill:none;stroke:#000000;stroke-miterlimit:10;}
	.st3{fill:none;stroke:#000000;stroke-width:5;stroke-miterlimit:10;}
	.st4{display:none;}
	.st5{display:inline;}
	.st6{clip-path:url(#SVGID_2_);}
	.st7{fill:none;}
</style>
<g id="Слой_1">
	
		<image style="display:none;overflow:visible;enable-background:new    ;" width="1537" height="2049" xlink:href="5D6667D3.jpg"  transform="matrix(0.9993 0 0 0.9993 168.037 1390.1429)">
	</image>
	<path class="st0" d="M67.3,45.5"/>
	<path class="st1" d="M173.4,260.5c-24.9-3.1-47.4-13-65.3-27.8c-26-21.3-42.3-52.5-42.3-87.3c0-13.5,2.5-26.4,7-38.5L28.2,36
		l63.6,38.4l8.3,5c0,1.7,0,3.4,0,5C100,153.1,128,215.3,173.4,260.5z"/>
	<path class="st2" d="M67.3,45.5"/>
	<path class="st2" d="M25,240.3"/>
	<path class="st2" d="M202.3,74.6"/>
	<path class="st2" d="M-219-81.3"/>
	<line class="st1" x1="121.2" y1="237" x2="121.9" y2="279.1"/>
	<polygon class="st3" points="703.9,-147.3 703.9,-147.3 703.9,-147.3 	"/>
</g>
<g id="Слой_2">
	<g class="st4">
		<g class="st5">
			<defs>
				<circle id="SVGID_1_" cx="3546.1" cy="2308.5" r="231.5"/>
			</defs>
			<clipPath id="SVGID_2_">
				<use xlink:href="#SVGID_1_"  style="overflow:visible;"/>
			</clipPath>
			<g class="st6">
				
					<image style="overflow:visible;enable-background:new    ;" width="701" height="526" xlink:href="5D6667D1.jpeg"  transform="matrix(0.9981 0 0 0.9981 3196.2212 2045.9613)">
				</image>
			</g>
		</g>
	</g>
	<rect x="440" y="-1051" class="st7" width="2" height="20"/>
	<text transform="matrix(1 0 0 1 440.0036 -1042.4849)" style="font-family:'ArialMT'; font-size:12px;"> </text>
</g>
</svg>
